{
	"data": [
        { 
            "id":1 ,
            "announcement": "Webinar on Industrial Digitalization & Cloud Adoption",
            "linkTo": "pdf/Announcement/Online_Webinar.pdf"
        },
        { 
            "id":2 ,
            "announcement": "Admissions in All Programs are open for the Session 2022-23",
            "linkTo": "/admissionprocedure"
        },
        { 
            "id":3 ,
            "announcement": "International Yoga Day Event 2022",
            "linkTo":"/pdf/Announcement/Report_International_Yogaday_2022.pdf"
        },
        { 
            "id":4 ,
            "announcement": "Important Notice for Passout Batch 2020",
            "linkTo":"/pdf/Announcement/Important_notice_Passout_Batch_2020.pdf"
        },
        { 
            "id":5 ,
            "announcement": "Even Semester Result 2020",
            "linkTo":"/pdf/Announcement/Even_Sem_Result_2020.pdf"
        },
        { 
            "id":6 ,
            "announcement": "END SEMESTER EXAMINATION 2020EVENSEM",
            "linkTo":"/pdf/Announcement/Date_sheet_2020EVEN_SEM.pdf"
        },
        { 
            "id":7 ,
            "announcement": "Important Notice",
            "linkTo":"/pdf/Announcement/NOTICE_03.07.2020.pdf"
        },
        { 
            "id":8 ,
            "announcement": "General Awareness (Covid 19)",
            "linkTo":"http://jaypeeu.ac.in/wp-content/uploads/General"
        },
        { 
            "id":9 ,
            "announcement": "2019 Odd Semester Result",
            "linkTo":"/pdf/Announcement/2019OddsemesterResult.pdf"
        },
        { 
            "id":10 ,
            "announcement": "Pariksha Pe Charcha 2.0 By Honorable Prime Minister Sri Narendra Modi Ji Live Telecast at 11.00 AM Lecture Theatre 1 Academic Block",
            "linkTo":"https://www.youtube.com/user/HRDMinistry"
        },
        { 
            "id":11 ,
            "announcement": "Two-day National Conference on Performance Evaluation of Big Data (PEBD-2019)",
            "linkTo":"/pdf/Announcement/Conference_Brochure.pdf"
        },
        { 
            "id":12 ,
            "announcement": "4th International Yoga Day 21st June 2018",
            "linkTo":"/pdf/Announcement/4th_International_Yoga_Day_2018.pdf"
        },
        { 
            "id":13 ,
            "announcement": "Result Fasttrack Semester 2018",
            "linkTo":"/pdf/Announcement/Results_FastTrack_2018.pdf"
        },
        { 
            "id":14 ,
            "announcement": "Result_2018_Even_Semester.pdf",
            "linkTo":"/pdf/Announcement/Result_2018_Even_Semester.pdf"
        },
        { 
            "id":15 ,
            "announcement": "Coding Arena 2018",
            "linkTo":"/pdf/Announcement/Coding_Compation_2018.pdf"
        },
        { 
            "id":16 ,
            "announcement": "Result ODD Semester 2017",
            "linkTo":"/pdf/Announcement/Result2017OddSemester.pdf"
        },
        { 
            "id":17 ,
            "announcement": "nternational Yoga Day 2017",
            "linkTo":"/pdf/Announcement/Report_on_International_Yoga_Day_2017.pdf"
        },
        { 
            "id":18 ,
            "announcement": "Data on Ph.D Scholars",
            "linkTo":"/pdf/Announcement/Data_on_Ph.D_Scholars.pdf"
        },
        { 
            "id":19 ,
            "announcement": "Speech of Honble Founder Chairman at JUIT",
            "linkTo":"/aboutmessage"
        },
        { 
            "id":20 ,
            "announcement": "RESULT EVEN SEMESTER 2017",
            "linkTo":"/pdf/Announcement/Result-Even-Semester_2017.pdf"
        },
        { 
            "id":21 ,
            "announcement": "National Anthem on 70th Independence Day by UGC Guideline",
            "linkTo":"/pdf/Announcement/National-Anthem-on-70-Independence-Day-As-per-UGC-Guidelines.pdf"
        },
        { 
            "id":22 ,
            "announcement": "Two Days Workshop on Introduction to CFD Using OpenFOAM on 2nd & 3rd May 2016",
            "linkTo":"/pdf/Announcement/CFD-Workshop-May-2016.pdf"
        },
        { 
            "id":23 ,
            "announcement": "First National Conference on Recent Advances in Civil Engineering (RACE 2016) 19-20 March 2016",
            "linkTo":"/pdf/Announcement/RACE2016.pdf"
        },
        { 
            "id":24 ,
            "announcement": "Starting from the academic session 2016-2017, the University shall be adding four(4) more faculties.",
            "linkTo":"#"
        },
        { 
            "id":25 ,
            "announcement": "  Formation of IEEE Student Branch",
            "linkTo":"/pdf/Announcement/IEEE_JUA.pdf"
        },
        { 
            "id":26 ,
            "announcement": "IEEE Student Branch Approval Letter",
            "linkTo":"/pdf/Announcement/IEEE_Approval.pdf"
        },
        { 
            "id":27 ,
            "announcement": "Annual Festival CONVIVIAL on 3-4 April 2015",
            "linkTo":"#"
        },
        { 
            "id":28 ,
            "announcement": "Fee Payment Instructions: Even Semester 2015 (Jan-June 2015)",
            "linkTo":"/pdf/Announcement/FeeJUA.pdf"
        },
        { 
            "id":29 ,
            "announcement": "UGC Proforma to be submitted by Private Universities",
            "linkTo":"#"
        },
        { 
            "id":30 ,
            "announcement": "University allowed to commence operations",
            "linkTo":"/pdf/Announcement/letter.pdf"
        },
        { 
            "id":31 ,
            "announcement": "Standing Orders",
            "linkTo":"#"
        }
	]
}
