{
    "data":[
        
       {
            "id":1,
            "carnivalId": 1,
            "heading":"Alumni Carnival",
            "carnival": "alumni7.jpeg"

        },
        {
            "id":2,
            "carnivalId": 2,
            "heading":"Alumni Carnival",
            "carnival": "alumni8.jpeg"

        },
        {
            "id":3,
            "carnivalId": 3,
            "heading":"Alumni Carnival",
            "carnival": "alumni9.jpeg"
        }
        
    ]
}