{
    "data":[
        {
            "id":1,
            "Footballid": 1,
            "Footballimg" : "footbal1.jpg"
        },
        {
            "id":2,
            "Footballid": 2,
            "Footballimg" : "footbal2.jpg"
        },
        {
            "id":3,
            "Footballid": 3,
            "Footballimg" : "footbal3.jpg"
        },
        {
            "id":4,
            "Footballid": 4,
            "Footballimg" : "footbal4.jpg"
        }
    ]
}
